<?xml version="1.0" encoding="iso-8859-1"?>
<svg id="search" data-name="search" xmlns="http://www.w3.org/2000/svg" viewBox="0 0 48 48">
	<title>search</title>
	<path class="cls-1" d="M40.71,39.29,28.4,26.93A12.2,12.2,0,1,0,27,28.35l12.3,12.35a1,1,0,0,0,1.42-1.41ZM9,19.13A10.13,10.13,0,1,1,19.13,29.26,10.14,10.14,0,0,1,9,19.13Z" />
</svg>
