<?xml version="1.0" encoding="iso-8859-1"?>
<svg id="by-bulk" data-name="by-bulk" xmlns="http://www.w3.org/2000/svg" viewBox="0 0 48 48">
	<title>by-bulk</title>
	<polygon class="cls-1" points="24 15 1 9 24 3 47 9 24 15" />
	<polyline class="cls-1" points="47 8.93 47 37 24 45 1 37 1 8.93" />
	<line class="cls-1" x1="24" y1="14.93" x2="24" y2="44.93" />
</svg>
