<?xml version="1.0" encoding="iso-8859-1"?>
<svg id="circle_arrows" data-name="circle_arrows" xmlns="http://www.w3.org/2000/svg" viewBox="0 0 48 48">
	<title>circle_arrows</title>
	<path class="cls-1" d="M14.06,20.55a1,1,0,0,0-1.41.12l-5.06,6A16,16,0,0,1,9.75,16.23a17,17,0,0,1,10.6-7.81,16,16,0,0,1,15.66,5,1,1,0,1,0,1.5-1.32A18,18,0,0,0,19.89,6.48,19,19,0,0,0,8,15.21a18,18,0,0,0-2.59,9.67L2.27,20.11A1,1,0,1,0,.6,21.22l5.56,8.31a1,1,0,0,0,.78.44H7a1,1,0,0,0,.77-.36L14.18,22A1,1,0,0,0,14.06,20.55Z" />
	<path class="cls-1" d="M47.4,28.8l-5.51-8.25,0,0,0,0s-.07-.06-.09-.09a1,1,0,0,0-.16-.15,1,1,0,0,0-.52-.2,1,1,0,0,0-.82.36l-6.43,7.66a1,1,0,1,0,1.53,1.29l4.92-5.87a16.54,16.54,0,0,1-12.62,16.1,15.92,15.92,0,0,1-14.92-4.22,1,1,0,0,0-1.41,1.42A17.92,17.92,0,0,0,24,42a18.16,18.16,0,0,0,4.15-.48A18.68,18.68,0,0,0,42.26,24.71l3.48,5.2A1,1,0,0,0,47.4,28.8Z" />
</svg>
