<?xml version="1.0" encoding="UTF-8" standalone="no"?>
<svg
   xmlns:dc="http://purl.org/dc/elements/1.1/"
   xmlns:cc="http://creativecommons.org/ns#"
   xmlns:rdf="http://www.w3.org/1999/02/22-rdf-syntax-ns#"
   xmlns:svg="http://www.w3.org/2000/svg"
   xmlns="http://www.w3.org/2000/svg"
   xmlns:sodipodi="http://sodipodi.sourceforge.net/DTD/sodipodi-0.dtd"
   xmlns:inkscape="http://www.inkscape.org/namespaces/inkscape"
   id="delivery"
   data-name="delivery"
   viewBox="0 0 48 48"
   width="45px"
   height="45px"
   version="1.1"
   sodipodi:docname="Freshness.svg"
   inkscape:version="0.92.2 (5c3e80d, 2017-08-06)">
  <metadata
     id="metadata1527">
    <rdf:RDF>
      <cc:Work
         rdf:about="">
        <dc:format>image/svg+xml</dc:format>
        <dc:type
           rdf:resource="http://purl.org/dc/dcmitype/StillImage" />
        <dc:title>delivery</dc:title>
      </cc:Work>
    </rdf:RDF>
  </metadata>
  <defs
     id="defs1525">
    <inkscape:path-effect
       effect="simplify"
       id="path-effect842"
       is_visible="true"
       steps="1"
       threshold="0.5"
       smooth_angles="360"
       helper_size="0"
       simplify_individual_paths="false"
       simplify_just_coalesce="false"
       simplifyindividualpaths="false"
       simplifyJustCoalesce="false" />
  </defs>
  <sodipodi:namedview
     pagecolor="#ffffff"
     bordercolor="#666666"
     borderopacity="1"
     objecttolerance="10"
     gridtolerance="10"
     guidetolerance="10"
     inkscape:pageopacity="0"
     inkscape:pageshadow="2"
     inkscape:window-width="1280"
     inkscape:window-height="961"
     id="namedview1523"
     showgrid="false"
     inkscape:zoom="5.2444444"
     inkscape:cx="11.059322"
     inkscape:cy="22.5"
     inkscape:window-x="77"
     inkscape:window-y="-8"
     inkscape:window-maximized="1"
     inkscape:current-layer="delivery" />
  <title
     id="title1508">delivery</title>
  <g
     transform="matrix(1.0521195,0,0,1.0225165,-1.072057,-0.98107249)"
     id="g842">
    <ellipse
       ry="13.297891"
       rx="13.736415"
       cy="19.163164"
       cx="24.587872"
       id="path815"
       style="fill:none;fill-opacity:1;stroke:#000000;stroke-width:1.52173424;stroke-linecap:butt;stroke-linejoin:miter;stroke-miterlimit:5.19999981;stroke-dasharray:none;stroke-dashoffset:0;stroke-opacity:1;paint-order:stroke fill markers" />
    <ellipse
       ry="17.281467"
       rx="17.513321"
       cy="19.163164"
       cx="24.587864"
       id="path815-8"
       style="fill:none;fill-opacity:1;stroke:#000000;stroke-width:1.52173424;stroke-linecap:butt;stroke-linejoin:miter;stroke-miterlimit:5.19999981;stroke-dasharray:none;stroke-dashoffset:0;stroke-opacity:1;paint-order:stroke fill markers" />
    <path
       inkscape:path-effect="#path-effect842"
       inkscape:original-d="m 17.772492,21.814936 c 2.284964,1.859476 3.785427,3.368443 6.341642,4.645037"
       inkscape:connector-curvature="0"
       id="path840"
       d="m 17.772492,21.814936 c 0,0 6.341642,4.645037 6.341642,4.645037"
       style="fill:none;stroke:#000000;stroke-width:1.52173424;stroke-linecap:butt;stroke-linejoin:miter;stroke-miterlimit:5.19999981;stroke-dasharray:none;stroke-opacity:1" />
    <path
       inkscape:connector-curvature="0"
       id="path876"
       d="m 23.23461,26.6757 c 8.325915,-9.096333 8.325915,-9.096333 8.325915,-9.096333"
       style="fill:none;stroke:#000000;stroke-width:1.52173424;stroke-linecap:butt;stroke-linejoin:miter;stroke-miterlimit:5.19999981;stroke-dasharray:none;stroke-opacity:1" />
    <path
       inkscape:connector-curvature="0"
       id="path876-1"
       d="M 16.304466,46.970995 C 22.694719,36.523924 22.694719,36.523924 22.694719,36.523924"
       style="fill:none;stroke:#000000;stroke-width:1.52173424;stroke-linecap:round;stroke-linejoin:miter;stroke-miterlimit:5.19999981;stroke-dasharray:none;stroke-opacity:1" />
    <path
       inkscape:connector-curvature="0"
       id="path876-1-5"
       d="m 32.965847,46.779356 c -6.166936,-9.93641 -6.166936,-9.93641 -6.166936,-9.93641"
       style="fill:none;stroke:#000000;stroke-width:1.45791507;stroke-linecap:round;stroke-linejoin:miter;stroke-miterlimit:5.19999981;stroke-dasharray:none;stroke-opacity:1" />
    <path
       inkscape:connector-curvature="0"
       id="path876-1-5-8"
       d="M 44.041547,40.965458 C 37.995175,31.149493 37.995175,31.149493 37.995175,31.149493"
       style="fill:none;stroke:#000000;stroke-width:1.43481731;stroke-linecap:round;stroke-linejoin:miter;stroke-miterlimit:5.19999981;stroke-dasharray:none;stroke-opacity:1" />
    <path
       inkscape:connector-curvature="0"
       id="path876-1-1"
       d="M 5.0191882,41.22605 C 11.409441,30.778987 11.409441,30.778987 11.409441,30.778987"
       style="fill:none;stroke:#000000;stroke-width:1.52173424;stroke-linecap:round;stroke-linejoin:miter;stroke-miterlimit:5.19999981;stroke-dasharray:none;stroke-opacity:1" />
    <path
       inkscape:connector-curvature="0"
       id="path1027"
       d="M 5.0191882,41.22605 C 12.99748,40.329141 12.99748,40.329141 12.99748,40.329141 c 3.306986,6.641854 3.306986,6.641854 3.306986,6.641854"
       style="fill:none;stroke:#000000;stroke-width:1.52173424;stroke-linecap:butt;stroke-linejoin:miter;stroke-miterlimit:5.19999981;stroke-dasharray:none;stroke-opacity:1" />
    <path
       inkscape:connector-curvature="0"
       id="path1027-0"
       d="m 44.21897,41.002099 c -7.978295,-0.896908 -7.978295,-0.896908 -7.978295,-0.896908 -3.306989,6.641855 -3.306989,6.641855 -3.306989,6.641855"
       style="fill:none;stroke:#000000;stroke-width:1.52173424;stroke-linecap:butt;stroke-linejoin:miter;stroke-miterlimit:5.19999981;stroke-dasharray:none;stroke-opacity:1" />
  </g>
</svg>
