<?xml version="1.0" encoding="iso-8859-1"?>
<svg id="order-history" data-name="order-history" xmlns="http://www.w3.org/2000/svg" viewBox="0 0 48 48">
	<title>order-history</title>
	<path class="cls-1" d="M46.45,1l0-1H19.49V1c0,.22.19,21.84-1.83,33H8.5a2.87,2.87,0,0,0-2.12.82C5.22,36,5.23,38.06,5.25,40.25c0,2,0,4.19-.92,5.15A2.45,2.45,0,0,1,2.5,46v2h25a4.38,4.38,0,0,0,3.24-1.19A5.17,5.17,0,0,0,32,44h7.46a3,3,0,0,0,2.19-1C47.15,37.35,46.54,4.68,46.45,1ZM29.28,45.4a2.45,2.45,0,0,1-1.83.6H6.36c.92-1.57.9-3.78.89-5.76,0-1.61,0-3.43.55-4A.9.9,0,0,1,8.5,36H30.61a12.76,12.76,0,0,0-.41,4.25C30.21,42.22,30.23,44.44,29.28,45.4Zm2.92-5.16c0-1.61,0-3.43.55-4a.9.9,0,0,1,.7-.22,1.42,1.42,0,0,1,.93.24c.34.34.33,1.31.32,2.24A7.26,7.26,0,0,0,35.26,42H32.19C32.2,41.41,32.2,40.81,32.2,40.24Zm8,1.36a1,1,0,0,1-.76.41,3.08,3.08,0,0,1-2.19-.6c-.58-.58-.57-1.75-.55-2.89,0-1.34,0-2.74-.9-3.67A3.18,3.18,0,0,0,33.45,34H19.7c1.76-10.12,1.82-27.58,1.8-32h23C44.66,12.5,44.25,37.46,40.21,41.59Z" />
	<path class="cls-1" d="M26.5,8h4a1,1,0,0,0,0-2h-4a1,1,0,0,0,0,2Z" />
	<path class="cls-1" d="M39.5,10h-11a1,1,0,0,0,0,2h11a1,1,0,0,0,0-2Z" />
	<path class="cls-1" d="M25.5,16h13a1,1,0,0,0,0-2h-13a1,1,0,0,0,0,2Z" />
	<path class="cls-1" d="M39.5,18h-14a1,1,0,0,0,0,2h14a1,1,0,0,0,0-2Z" />
	<path class="cls-1" d="M37.5,24a1,1,0,0,0,0-2h-12a1,1,0,0,0,0,2Z" />
	<path class="cls-1" d="M24.5,28h14a1,1,0,0,0,0-2h-14a1,1,0,0,0,0,2Z" />
	<path class="cls-1" d="M39.5,30h-16a1,1,0,0,0,0,2h16a1,1,0,0,0,0-2Z" />
</svg>
