<?xml version="1.0" encoding="iso-8859-1"?>
<svg id="plus" data-name="plus" xmlns="http://www.w3.org/2000/svg" viewBox="0 0 48 48" fill="#ef5664">
	<title>plus</title>
	<rect class="cls-1" x="22.67" y="9.17" width="1.85" height="30.49" />
	<rect class="cls-1" x="8.34" y="23.49" width="30.49" height="1.84" />
</svg>
